{
  "permissions": {
    "/products": [
      "ROLE_CUSTOMER",
      "ROLE_MANAGER"
    ],
    "/carts": [
      "ROLE_CUSTOMER",
      "ROLE_MANAGER"
    ]
  },
  "users": [
    {
      "id": 1,
      "username": "manager",
      "password": "manager",
      "roles": [
        "ROLE_MANAGER"
      ]
    },
    {
      "id": 2,
      "username": "kupac",
      "password": "kupac",
      "roles": [
        "ROLE_CUSTOMER"
      ]
    }
  ],
  "products": [
    {
      "id": 1,
      "title": "Televizor",
      "description": "Uređaj za reprodukovanje slike i zvuka",
      "price": 75000
    },
    {
      "id": 2,
      "title": "Mobilni telefon",
      "description": "Uređaj za razmenu informacija na daljinu.",
      "price": 25000
    }
  ],
  "carts": [
    {
      "id": 1,
      "quantity": 1,
      "price": 80000,
      "userId": 1,
      "productId": 1, 
      "purchaseDate": "2020-12-15",
      "completed": true
    },
    {
      "id": 2,
      "quantity": 2,
      "price": 23000,
      "userId": 1,
      "productId": 2,
      "purchaseDate": "2021-03-20",
      "completed": false
    }
  ]
}